{
  "name": "peek",
  "plugins": [
    {
      "name": "TailwindCSS",
      "description": "A utility-first CSS framework packed with classes like flex, pt-4, text-center and rotate-90 that can be composed to build any design, directly in your markup.",
      "url": "https://tailwindcss.com/docs"
    },
    {
      "name": "Styled Components",
      "description": "Utilising tagged template literals (a recent addition to JavaScript) and the power of CSS, styled-components allows you to write actual CSS code to style your components.",
      "url": "https://styled-components.com/docs"
    },
    {
      "name": "Storybook",
      "description": "Storybook is an open source tool for developing UI components in isolation for React, Vue, Angular, and more. It makes building stunning UIs organized and efficient.",
      "url": "https://storybook.js.org/docs/react/get-started/introduction"
    },
    {
      "name": "SVGR",
      "description": "Transform SVGs into React components.",
      "url": "https://react-svgr.com/docs/getting-started/"
    },
    {
      "name": "Environment Variables",
      "description": "Use environment variables in your next.js project for server side, client or both.",
      "url": "https://github.com/vercel/next.js/tree/canary/examples/environment-variables"
    },
    {
      "name": "Bundle Analyzer",
      "description": "Use webpack-bundle-analyzer in your Next.js project. Visualize size of webpack output files with an interactive zoomable treemap.",
      "url": "https://github.com/vercel/next.js/tree/canary/packages/next-bundle-analyzer"
    },
    {
      "name": "graphql-request",
      "description": "Minimal GraphQL client supporting Node and browsers for scripts or simple apps",
      "url": "https://github.com/prisma-labs/graphql-request"
    },
    {
      "name": "SWR",
      "description": "React Hooks library for data fetching from Vercel",
      "url": "https://swr.vercel.app/"
    },
    {
      "name": "React Query",
      "description": "Hooks for fetching, caching and updating asynchronous data in React.",
      "url": "https://react-query.tanstack.com/overview"
    },
    {
      "name": "react-use",
      "description": "A Collection of useful React hooks.",
      "url": "https://github.com/streamich/react-use"
    },
    {
      "name": "next-i18next",
      "description": "next-i18next is a plugin for Next.js projects that allows you to get translations up and running quickly and easily, while fully supporting SSR, multiple namespaces with codesplitting, etc.",
      "url": "https://github.com/isaachinman/next-i18next"
    },
    {
      "name": "Testing Library",
      "description": "The React Testing Library is a very light-weight solution for testing React components. It provides light utility functions on top of react-dom and react-dom/test-utils.",
      "url": "https://testing-library.com/docs/"
    },
    {
      "name": "Cypress",
      "description": "Fast, easy and reliable testing for anything that runs in a browser.",
      "url": "https://docs.cypress.io/guides/overview/why-cypress.html"
    },
    {
      "name": "Docker",
      "description": "Docker simplifies and accelerates your workflow, while giving developers the freedom to innovate with their choice of tools, application stacks, and deployment environments for each project.",
      "url": "https://www.docker.com/get-started"
    },
    {
      "name": "Github Actions",
      "description": "GitHub Actions makes it easy to automate all your software workflows, now with world-class CI/CD. Build, test, and deploy your code right from GitHub.",
      "url": "https://docs.github.com/en/actions"
    }
  ]
}
