{
  "ross": {
    "awscloudformation": {
      "AuthRoleName": "amplify-peek-ross-164518-authRole",
      "UnauthRoleArn": "arn:aws:iam::144504656881:role/amplify-peek-ross-164518-unauthRole",
      "AuthRoleArn": "arn:aws:iam::144504656881:role/amplify-peek-ross-164518-authRole",
      "Region": "us-east-1",
      "DeploymentBucketName": "amplify-peek-ross-164518-deployment",
      "UnauthRoleName": "amplify-peek-ross-164518-unauthRole",
      "StackName": "amplify-peek-ross-164518",
      "StackId": "arn:aws:cloudformation:us-east-1:144504656881:stack/amplify-peek-ross-164518/12333100-876a-11eb-82fe-0a57eb901035",
      "AmplifyAppId": "d2rr957b1u3dxz"
    }
  },
  "dev": {
    "awscloudformation": {
      "AuthRoleName": "amplify-peek-dev-124449-authRole",
      "UnauthRoleArn": "arn:aws:iam::530645650598:role/amplify-peek-dev-124449-unauthRole",
      "AuthRoleArn": "arn:aws:iam::530645650598:role/amplify-peek-dev-124449-authRole",
      "Region": "us-east-1",
      "DeploymentBucketName": "amplify-peek-dev-124449-deployment",
      "UnauthRoleName": "amplify-peek-dev-124449-unauthRole",
      "StackName": "amplify-peek-dev-124449",
      "StackId": "arn:aws:cloudformation:us-east-1:530645650598:stack/amplify-peek-dev-124449/a44cf2e0-8811-11eb-93ee-0e55cf8eb989",
      "AmplifyAppId": "d3eguayuyuagbf"
    },
    "categories": {
      "auth": {
        "peekc28a2010": {}
      }
    }
  }
}